<svg id="icon-SW1" xmlns="http://www.w3.org/2000/svg" viewBox="0 0 64 64">
  <title>SW1</title>
  <polygon points="18.7 50.71 21.89 36.74 8.21 32.52 15.36 28.39 29.05 32.61 25.86 46.57 18.7 50.71" fill="#c5c3c4" fill-rule="evenodd"/>
  <polygon points="31.69 43.21 34.88 29.25 21.2 25.02 28.35 20.89 42.04 25.11 38.85 39.07 31.69 43.21" fill="#c5c3c4" fill-rule="evenodd"/>
  <polygon points="44.68 35.71 47.87 21.75 34.19 17.52 41.34 13.39 55.03 17.61 51.84 31.57 44.68 35.71" fill="#047eb7" fill-rule="evenodd"/>
</svg>
