<svg id="icon-40n" xmlns="http://www.w3.org/2000/svg" viewBox="0 0 110 110">
  <title>40n</title>
  <g id="icon-40n-2" data-name="icon-40n">
    <path d="M21.79,62.56A6.7,6.7,0,0,1,20,61.31a6.5,6.5,0,0,1-2-4.73,6.66,6.66,0,0,1,6.71-6.65H28.8a7,7,0,0,1,1.55.18h0a19.34,19.34,0,0,1,1.57-3.4,20.07,20.07,0,0,1,1.33-2c.14-.18.28-.35.43-.52l.1-.11c.24-.3.57-.69,1-1.08l.7-.67c.34-.32.69-.62,1.06-.92l.09-.07.58-.46c.51-.37,1-.69,1.47-1a17,17,0,0,0-4.29-2.67,16.07,16.07,0,0,0-14.43.89,16.33,16.33,0,0,0-6,6A16.14,16.14,0,0,0,14,60.4a16.11,16.11,0,0,0,4.77,5.15A6.45,6.45,0,0,1,20,63.82a6.61,6.61,0,0,1,1.79-1.26" fill="#bbbdbf"/>
    <path d="M94.86,46.9a15,15,0,0,0-8.55-5.42A18.8,18.8,0,0,0,68,26.83a18.12,18.12,0,0,0-8.46,2l-.09.05a19.91,19.91,0,0,0-2.93,1.9l-.05,0c-.38.3-.74.62-1.09.94-.13.11-.25.23-.37.35s-.43.42-.63.64-.27.29-.41.44l-.52.63c-.13.15-.25.31-.37.47s-.43.59-.64.9l-.31.49c-.18.29-.35.59-.51.89-.08.15-.16.3-.23.45s-.28.56-.4.84l-.2.47a20.39,20.39,0,0,0-.9,2.77h-1c-.58,0-1.15,0-1.71.09s-1,.12-1.46.22l-.11,0c-.47.1-.94.22-1.4.36l-.16,0c-.47.15-.93.33-1.38.52l-.23.1c-.34.15-.66.33-1,.5a3.84,3.84,0,0,0-.35.18l-.06,0a17.2,17.2,0,0,0-1.45.95l-.53.42c-.29.23-.57.47-.83.72s-.38.35-.55.54-.51.55-.76.84-.29.33-.42.51a13.47,13.47,0,0,0-1.06,1.57,14.67,14.67,0,0,0-.93,1.86,6.78,6.78,0,0,1,3-.68h32.4a7,7,0,0,1,1.55.18,6.45,6.45,0,0,1,3.15,1.75,6.76,6.76,0,0,1,1.93,4.72,6.66,6.66,0,0,1-1.26,3.91,8.59,8.59,0,0,1-.65.78,6.51,6.51,0,0,1-1.84,1.29,6.57,6.57,0,0,1,1.8,1.26,6.23,6.23,0,0,1,.62.74l.17-.22a4.78,4.78,0,0,1,1.41-3.27l.49-.49a4.87,4.87,0,0,1,3.29-1.43,4.81,4.81,0,0,1,3.3-1.32h.73a4.8,4.8,0,0,1,3.32,1.33,4.8,4.8,0,0,1,3.25,1.4l.51.5A4.78,4.78,0,0,1,93,64.34a4.75,4.75,0,0,1,1.24,2.5,15.39,15.39,0,0,0,.61-19.94" fill="#5290cc"/>
    <path d="M89.52,66.83H87l1.78-1.78a.84.84,0,0,0,.24-.58.82.82,0,0,0-.24-.57l-.51-.51a.83.83,0,0,0-.58-.23.85.85,0,0,0-.58.22l-1.77,1.78V62.64a.82.82,0,0,0-.82-.81h-.73a.82.82,0,0,0-.81.81v2.53L81.2,63.39a.78.78,0,0,0-.57-.24h0a.86.86,0,0,0-.58.23l-.51.52a.81.81,0,0,0,0,1.15l1.78,1.78H78.8a.81.81,0,0,0-.81.81v.73a.81.81,0,0,0,.81.81h2.52L79.54,71a.8.8,0,0,0-.24.57.84.84,0,0,0,.19.51l.05.07.52.52a.8.8,0,0,0,.58.23.78.78,0,0,0,.56-.24l.58-.58,1.2-1.2v2.52a.78.78,0,0,0,.39.67.75.75,0,0,0,.42.14h.73a.79.79,0,0,0,.63-.31.81.81,0,0,0,.19-.5V70.84l.8.81,1,1a.79.79,0,0,0,.58.23.77.77,0,0,0,.57-.23l.52-.51a.82.82,0,0,0,.23-.58.79.79,0,0,0-.23-.57l-.12-.12L87,69.18h2.53a.82.82,0,0,0,.81-.81v-.73a.81.81,0,0,0-.81-.81" fill="#5290cc"/>
    <path d="M72.21,55.42a2.74,2.74,0,0,1,.25,1.16,2.57,2.57,0,0,1-.5,1.56,2.6,2.6,0,0,1-.26.32,2.41,2.41,0,0,1-1.26.7,2.32,2.32,0,0,1-.59.07H37.43a2.6,2.6,0,0,1-1.92-.77,2.13,2.13,0,0,1-.28-.33,2.54,2.54,0,0,1-.5-1.55A2.46,2.46,0,0,1,35.24,55a4.15,4.15,0,0,1,.27-.32,2.67,2.67,0,0,1,1.92-.77h32.4a2.75,2.75,0,0,1,.65.08,2.52,2.52,0,0,1,1.22.68,2.75,2.75,0,0,1,.51.73m0,12a2.75,2.75,0,0,0-.51-.73A2.52,2.52,0,0,0,70.46,66a2.74,2.74,0,0,0-.64-.08H51.59a2.61,2.61,0,0,0-1.92.78,1.58,1.58,0,0,0-.27.31,2.63,2.63,0,0,0,0,3.11,3,3,0,0,0,.29.33,2.6,2.6,0,0,0,1.92.77H69.83a2.27,2.27,0,0,0,.59-.07,2.41,2.41,0,0,0,1.26-.7,2.6,2.6,0,0,0,.26-.32,2.55,2.55,0,0,0,.5-1.56,2.74,2.74,0,0,0-.25-1.16M44.3,70.82a2.9,2.9,0,0,0,.54-.4,2.66,2.66,0,0,0,0-3.76h0s0,0-.07-.06a2.94,2.94,0,0,0-.41-.31l-.21-.11A2.23,2.23,0,0,0,43.7,66l-.1,0h-.05a3.86,3.86,0,0,0-.49-.06H24.67l-.14,0a2.57,2.57,0,0,0-.4,0h-.05L24,66a2.07,2.07,0,0,0-.47.18l-.17.08a2.63,2.63,0,0,0-.53,4.16h0v0l.07,0a2.53,2.53,0,0,0,.42.31l.21.11a2,2,0,0,0,.43.17.32.32,0,0,0,.09,0h.06a3.5,3.5,0,0,0,.48.06H43l.15,0a2.45,2.45,0,0,0,.39,0h.05a.29.29,0,0,0,.1,0,3.41,3.41,0,0,0,.48-.18l.16-.09M30.12,58.88a2.54,2.54,0,0,0,.57-.42,2.63,2.63,0,0,0,0-3.76,2.6,2.6,0,0,0-.54-.4L30,54.23a2.54,2.54,0,0,0-.52-.2l-.06,0h0a3.07,3.07,0,0,0-.53-.07H24.7l-.1,0a2.31,2.31,0,0,0-.46,0h0l-.05,0a2.78,2.78,0,0,0-.57.21l-.09.05a3.22,3.22,0,0,0-.57.42A2.56,2.56,0,0,0,22,56.58a2.51,2.51,0,0,0,.79,1.88,2.65,2.65,0,0,0,.54.41l.13.07a3.24,3.24,0,0,0,.52.19l.05,0h0a2.35,2.35,0,0,0,.54.06h4.27a3.41,3.41,0,0,0,.46,0h0l.05,0a2.78,2.78,0,0,0,.57-.21l.09,0m41.51,23.5a2.51,2.51,0,0,0,.79-1.88,2.55,2.55,0,0,0-.78-1.88,2.76,2.76,0,0,0-1.2-.67l0,0h0a3.06,3.06,0,0,0-.54-.07H65.65a2.9,2.9,0,0,0-.6.07l0,0-.1,0a2.72,2.72,0,0,0-.56.22,2.59,2.59,0,0,0-.57.43A2.54,2.54,0,0,0,63,80.5a2.51,2.51,0,0,0,.79,1.88,2.65,2.65,0,0,0,.54.41h0l.13.07a1.82,1.82,0,0,0,.3.11c.1,0,.18.08.28.1a2.61,2.61,0,0,0,.64.08h4.2a3.41,3.41,0,0,0,.46,0h0l.05,0a2.78,2.78,0,0,0,.57-.21l.06,0a2.29,2.29,0,0,0,.29-.18,2.51,2.51,0,0,0,.31-.26m-12.15-3a2.42,2.42,0,0,0-.5-.74,2.47,2.47,0,0,0-.38-.28s-.05,0-.08-.06a1.59,1.59,0,0,0-.29-.15,2,2,0,0,0-.4-.16l-.08,0h0a3,3,0,0,0-.68-.09H24.61a2.88,2.88,0,0,0-.59.07,2.6,2.6,0,0,0-1.52,1A2.64,2.64,0,0,0,22,80.5a2.57,2.57,0,0,0,.26,1.16,2.42,2.42,0,0,0,.5.74,3.37,3.37,0,0,0,.38.28l.08.06a1.59,1.59,0,0,0,.29.15,2.08,2.08,0,0,0,.39.15l.08,0H24a3,3,0,0,0,.68.09H57.12a2.8,2.8,0,0,0,.59-.07A2.52,2.52,0,0,0,59,82.39a3.56,3.56,0,0,0,.26-.31,2.64,2.64,0,0,0,.49-1.57,2.69,2.69,0,0,0-.25-1.15" fill="#5290cc"/>
  </g>
</svg>
