<svg id="icon-N3" xmlns="http://www.w3.org/2000/svg" viewBox="0 0 64 64">
  <title>N3</title>
  <polygon points="21.5 7.99 32 17.74 42.49 7.99 42.49 16.26 32 26.01 21.5 16.26 21.5 7.99" fill="#047eb7" fill-rule="evenodd"/>
  <polygon points="21.5 22.99 32 32.74 42.49 22.99 42.49 31.26 32 41.01 21.5 31.26 21.5 22.99" fill="#047eb7" fill-rule="evenodd"/>
  <polygon points="21.5 37.99 32 47.74 42.49 37.99 42.49 46.26 32 56.01 21.5 46.26 21.5 37.99" fill="#047eb7" fill-rule="evenodd"/>
</svg>
