<svg id="icon-NE1" xmlns="http://www.w3.org/2000/svg" viewBox="0 0 64 64">
  <title>NE1</title>
  <polygon points="44.54 13.39 41.35 27.35 55.03 31.57 47.88 35.71 34.19 31.49 37.38 17.52 44.54 13.39" fill="#c5c3c4" fill-rule="evenodd"/>
  <polygon points="31.55 20.89 28.36 34.85 42.04 39.07 34.88 43.21 21.2 38.99 24.39 25.02 31.55 20.89" fill="#c5c3c4" fill-rule="evenodd"/>
  <polygon points="18.55 28.39 15.37 42.35 29.05 46.57 21.89 50.71 8.21 46.49 11.4 32.52 18.55 28.39" fill="#047eb7" fill-rule="evenodd"/>
</svg>
