<svg id="icon-1n" xmlns="http://www.w3.org/2000/svg" viewBox="0 0 110 110">
  <title>1n</title>
  <g id="icon-1n-2" data-name="icon-1n">
    <g>
      <polygon points="55.56 55.12 55.55 62.31 61.25 57.94 68.08 60.17 65.7 53.4 69.93 47.59 62.75 47.77 58.53 41.95 56.48 48.83 49.64 51.05 55.56 55.12" fill="#bbbdbf"/>
      <polygon points="69.1 39.58 71.89 42.53 72.54 38.51 76.21 36.77 72.6 34.91 72.07 30.88 69.19 33.75 65.19 33 67.03 36.63 65.08 40.2 69.1 39.58" fill="#bbbdbf"/>
      <polygon points="78.09 54.05 77.78 51.64 76.06 53.36 73.67 52.91 74.77 55.08 73.6 57.21 76 56.84 77.67 58.61 78.06 56.21 80.26 55.16 78.09 54.05" fill="#bbbdbf"/>
      <polygon points="49.84 40.84 49.48 43.58 51.87 42.21 54.36 43.4 53.79 40.7 55.7 38.7 52.95 38.41 51.64 35.97 50.51 38.5 47.8 38.99 49.84 40.84" fill="#bbbdbf"/>
      <path d="M42.81,44.76a27.29,27.29,0,0,1,5.91-17,27.46,27.46,0,1,0,26.72,44,27.42,27.42,0,0,1-32.63-27Z" fill="#bbbdbf"/>
    </g>
  </g>
</svg>
