<svg id="icon-8n" xmlns="http://www.w3.org/2000/svg" viewBox="0 0 110 110">
  <title>8n</title>
  <g id="icon-8n-2" data-name="icon-8n">
    <path d="M35.75,57.12a6.61,6.61,0,0,1,1.79-1.26,6.67,6.67,0,0,1-1.77-1.24A6.66,6.66,0,0,1,40.5,43.23h4a6.44,6.44,0,0,1,1.55.19,6.27,6.27,0,0,1,2.74,1.39,6.55,6.55,0,0,1,4.07-1.56,16.31,16.31,0,0,0-3.33-4.92,16.71,16.71,0,0,0-5.2-3.48,15.7,15.7,0,0,0-6.3-1.31A15.9,15.9,0,0,0,30,35.74a16.3,16.3,0,0,0-6,6A16.16,16.16,0,0,0,24,58a16.19,16.19,0,0,0,6,5.93,15.79,15.79,0,0,0,5.16,1.91,6.62,6.62,0,0,1,.65-8.7" fill="#bbbdbf"/>
    <path d="M88,48.72a2.74,2.74,0,0,1,.25,1.16,2.55,2.55,0,0,1-.5,1.56,2.6,2.6,0,0,1-.26.32,2.41,2.41,0,0,1-1.26.7,2.32,2.32,0,0,1-.59.07H53.18a2.63,2.63,0,0,1-1.92-.77,2.88,2.88,0,0,1-.28-.33,2.54,2.54,0,0,1-.5-1.55A2.58,2.58,0,0,1,51,48.32a4,4,0,0,1,.27-.31,2.65,2.65,0,0,1,1.93-.78h32.4a2.74,2.74,0,0,1,.64.08,2.52,2.52,0,0,1,1.22.68,2.75,2.75,0,0,1,.51.73M75,72.26a1.75,1.75,0,0,0-.28-.33,2.61,2.61,0,0,0-1.92-.78H40.37a2.91,2.91,0,0,0-.6.06,2.54,2.54,0,0,0-1.26.71,2.79,2.79,0,0,0-.76,1.88A2.7,2.7,0,0,0,38,75a2.42,2.42,0,0,0,.5.74,2.51,2.51,0,0,0,1.23.68,3.2,3.2,0,0,0,.64.08h32.4a2.61,2.61,0,0,0,1.92-.78,2.69,2.69,0,0,0,.27-.32,2.59,2.59,0,0,0,0-3.1m-7.64-7.77H85.58a2.81,2.81,0,0,0,.59-.06,2.5,2.5,0,0,0,1.26-.71,1.92,1.92,0,0,0,.26-.32,2.55,2.55,0,0,0,.5-1.56,2.74,2.74,0,0,0-.25-1.16,2.55,2.55,0,0,0-1.73-1.41,3.3,3.3,0,0,0-.64-.08H67.34a2.71,2.71,0,0,0-2.19,1.09,6.79,6.79,0,0,1,.18,1.56,6.72,6.72,0,0,1-.2,1.55,3,3,0,0,0,.29.33,2.6,2.6,0,0,0,1.92.77m-2.19-4.21a2.53,2.53,0,0,0-.52,1.56,2.49,2.49,0,0,0,.51,1.55,7.22,7.22,0,0,0,.19-1.55,6.79,6.79,0,0,0-.18-1.56m-5.1,3.84a2.9,2.9,0,0,0,.54-.4,2.64,2.64,0,0,0,0-3.75h0l-.08-.05a3,3,0,0,0-.41-.32l-.21-.11a3.16,3.16,0,0,0-.43-.16l-.1,0H59.3a2,2,0,0,0-.48-.06l-.11,0H40.43l-.15,0a2.57,2.57,0,0,0-.4,0h-.05l-.09,0a2,2,0,0,0-.48.18l-.16.08a3,3,0,0,0-.54.41,2.54,2.54,0,0,0-.79,1.87,2.58,2.58,0,0,0,.79,1.88h0v0l.07,0a3.11,3.11,0,0,0,.42.32l.21.11a3.16,3.16,0,0,0,.43.16l.1,0h.05a2.52,2.52,0,0,0,.48.06H58.87a2.44,2.44,0,0,0,.39,0h.05l.1,0a3.41,3.41,0,0,0,.48-.18l.16-.09M45.87,52.18a2.27,2.27,0,0,0,.57-.42,2.51,2.51,0,0,0,.79-1.88A2.57,2.57,0,0,0,46.45,48a3,3,0,0,0-.55-.4l-.13-.07a3,3,0,0,0-.52-.2l0,0h0a3.33,3.33,0,0,0-.54-.07H40.46l-.11,0a2.31,2.31,0,0,0-.46,0h0l0,0a2.32,2.32,0,0,0-.57.22l-.08,0a2.64,2.64,0,0,0-.58.43,2.54,2.54,0,0,0-.79,1.87,2.51,2.51,0,0,0,.79,1.88,2.57,2.57,0,0,0,.54.41l.13.07a2.5,2.5,0,0,0,.52.19l.06,0h0a3.06,3.06,0,0,0,.54.07h4.27a3.41,3.41,0,0,0,.46-.05h0l.06,0a2.38,2.38,0,0,0,.56-.21l.09,0m41.51,23.5a2.5,2.5,0,0,0,.79-1.87,2.54,2.54,0,0,0-.78-1.88,2.59,2.59,0,0,0-1.19-.67l-.06,0h0a3.33,3.33,0,0,0-.54-.07H81.4a2.91,2.91,0,0,0-.6.06l0,0-.1,0a2.56,2.56,0,0,0-1.13.65,2.54,2.54,0,0,0-.79,1.87,2.51,2.51,0,0,0,.79,1.88,2.57,2.57,0,0,0,.54.41h0a.61.61,0,0,0,.14.07,1.33,1.33,0,0,0,.3.11c.09,0,.17.08.27.11a3.22,3.22,0,0,0,.64.07h4.2a2.31,2.31,0,0,0,.46,0h0l.06,0a3,3,0,0,0,.56-.22h0l.06,0a2.29,2.29,0,0,0,.29-.18,1.53,1.53,0,0,0,.31-.26" fill="#5290cc"/>
  </g>
</svg>
