<svg id="icon-15n" xmlns="http://www.w3.org/2000/svg" viewBox="0 0 110 110">
  <title>15n</title>
  <g id="icon-15n-2" data-name="icon-15n">
    <path d="M29.31,51.71a19.06,19.06,0,0,1,2.63-9.79,20.07,20.07,0,0,1,1.33-2c.14-.18.28-.35.43-.52l.1-.11c.24-.3.57-.69,1-1.08l.7-.67c.34-.32.69-.63,1.06-.92l.09-.08.58-.45c.51-.37,1-.69,1.47-1a17,17,0,0,0-4.29-2.67,15.73,15.73,0,0,0-6.3-1.3,15.89,15.89,0,0,0-8.13,2.19,16.33,16.33,0,0,0-6,6A16.14,16.14,0,0,0,14,55.6a16.17,16.17,0,0,0,5.94,5.93,15.89,15.89,0,0,0,8.15,2.19A16.38,16.38,0,0,0,32.87,63c-.38-.54-.74-1.1-1.07-1.68a19.39,19.39,0,0,1-2.49-9.61" fill="#bbbdbf"/>
    <path d="M94.86,42.1a15,15,0,0,0-8.55-5.42A18.8,18.8,0,0,0,68,22a18.12,18.12,0,0,0-8.46,2l-.09.05A19.91,19.91,0,0,0,56.49,26l-.05,0c-.38.3-.74.62-1.09.94-.13.11-.25.23-.37.35s-.43.42-.63.64-.27.29-.41.44l-.52.63-.37.47c-.22.29-.43.59-.64.9l-.31.49c-.18.29-.35.59-.51.89-.08.15-.16.3-.23.45s-.28.56-.4.85-.13.3-.2.46a20,20,0,0,0-.9,2.77h-1c-.58,0-1.15,0-1.71.09s-1,.12-1.46.22l-.11,0c-.47.1-.94.22-1.4.36l-.16,0c-.47.15-.93.33-1.38.52l-.23.1c-.33.15-.66.33-1,.5a3.84,3.84,0,0,0-.35.18l-.06,0a17.2,17.2,0,0,0-1.45,1l-.53.42c-.29.23-.57.47-.83.72s-.38.35-.55.54-.51.55-.75.84-.3.33-.43.51A16,16,0,0,0,35.39,44a15,15,0,0,0-2.08,7.76,15.31,15.31,0,0,0,2,7.65,15,15,0,0,0,1.29,1.92A15.5,15.5,0,0,0,40.71,65a15,15,0,0,0,7.54,2.24h20l4-10.68.2-.52.33-.45a4.84,4.84,0,0,1,3.9-2h8.87a4.48,4.48,0,0,1,3.9,2.05,4.37,4.37,0,0,1,.16,4.32l0,.1,0,.09-3.72,6.78h.06a15.25,15.25,0,0,0,8-4.43,15.41,15.41,0,0,0,1-20.36" fill="#5290cc"/>
    <path d="M86,70.94a.81.81,0,0,0-.3,0H79.08l7-12.7c.21-.43,0-.64-.46-.64H76.72A.85.85,0,0,0,76,58L69.57,75.22c-.06.42.08.63.43.63h6.41L71.9,88h.92L86.05,71.52c.16-.3.14-.5,0-.58" fill="#ec1c24"/>
  </g>
</svg>
