<svg id="icon-E2" xmlns="http://www.w3.org/2000/svg" viewBox="0 0 64 64">
  <title>E2</title>
  <polygon points="56 21.51 46.26 32 56 42.5 47.74 42.5 37.99 32 47.74 21.51 56 21.51" fill="#c5c3c4" fill-rule="evenodd"/>
  <polygon points="41 21.51 31.26 32 41 42.5 32.74 42.5 22.99 32 32.74 21.51 41 21.51" fill="#047eb7" fill-rule="evenodd"/>
  <polygon points="26 21.51 16.26 32 26 42.5 17.74 42.5 7.99 32 17.74 21.51 26 21.51" fill="#047eb7" fill-rule="evenodd"/>
</svg>
