<svg id="icon-21n" xmlns="http://www.w3.org/2000/svg" viewBox="0 0 110 110">
  <title>21n</title>
  <g id="icon-21n-2" data-name="icon-21n">
    <path d="M25.77,58h0a6.32,6.32,0,0,1,1.62.21,19.81,19.81,0,0,1-.11-2.05,19.16,19.16,0,0,1,2.63-9.79,20.07,20.07,0,0,1,1.33-2c.14-.18.28-.35.43-.52l.1-.12c.24-.29.57-.68.95-1.07l.7-.68c.34-.31.69-.62,1.06-.91l.1-.08.57-.45c.51-.37,1-.69,1.47-1A16.69,16.69,0,0,0,32.33,37a16.07,16.07,0,0,0-14.43.89,16.43,16.43,0,0,0-6,6,16.2,16.2,0,0,0,0,16.27A16.27,16.27,0,0,0,17.88,66l.25.13,1.6-4a6.46,6.46,0,0,1,6-4.09" fill="#bbbdbf"/>
    <path d="M92.83,46.58a15,15,0,0,0-8.55-5.42,18.42,18.42,0,0,0-6.59-10.53,18.75,18.75,0,0,0-20.21-2.09l-.09.05a19.13,19.13,0,0,0-2.93,1.9.1.1,0,0,0-.05,0c-.38.3-.74.61-1.09.94-.13.11-.25.23-.37.35s-.43.42-.63.64-.27.29-.41.44l-.52.63c-.13.15-.25.3-.37.46s-.43.6-.64.91-.21.32-.31.49-.35.58-.51.89c-.08.15-.16.3-.23.45s-.28.56-.4.84l-.2.47a20,20,0,0,0-.9,2.77h-1c-.58,0-1.15,0-1.71.09a14.28,14.28,0,0,0-1.46.22l-.11,0c-.47.1-.94.22-1.4.36l-.16,0a13.47,13.47,0,0,0-1.38.52l-.23.1c-.34.15-.66.32-1,.5l-.35.17-.06,0a17.2,17.2,0,0,0-1.45.95c-.18.13-.35.28-.53.42s-.56.47-.83.72-.38.35-.55.53-.51.56-.76.85-.29.33-.42.5a14.51,14.51,0,0,0-1.06,1.58,15,15,0,0,0-2.08,7.76,15.24,15.24,0,0,0,.18,2.36,6.48,6.48,0,0,1,4.94-.06,6.33,6.33,0,0,1,1.69,1,6.39,6.39,0,0,1,3-1.38A6.12,6.12,0,0,1,42.21,58h0a6.41,6.41,0,0,1,2.41.46,6.6,6.6,0,0,1,1.71,1A6.48,6.48,0,0,1,50.43,58a6.41,6.41,0,0,1,2.41.46,6.33,6.33,0,0,1,1.69,1,6.48,6.48,0,0,1,6.53-1,6.6,6.6,0,0,1,1.71,1A6.48,6.48,0,0,1,66.87,58a6.16,6.16,0,0,1,3.91,1.34c.1-.12.18-.24.28-.34l.49-.49a4.87,4.87,0,0,1,3.29-1.43,4.79,4.79,0,0,1,3.31-1.32h.73a4.84,4.84,0,0,1,3.32,1.33,4.78,4.78,0,0,1,3.25,1.4l.5.5a4.35,4.35,0,0,1,.34.41,4.23,4.23,0,0,1,.34-.4l.49-.49a4.85,4.85,0,0,1,3.29-1.43,4.76,4.76,0,0,1,3.3-1.32h.73a4.92,4.92,0,0,1,1.76.34,14.93,14.93,0,0,0-3.37-9.55" fill="#5290cc"/>
    <path d="M83.88,64.78a.81.81,0,0,1,.81.81v.73a.81.81,0,0,1-.81.81H81.36l1.78,1.78a.81.81,0,0,1,0,1.15l-.52.52a.85.85,0,0,1-1.15,0L79.7,68.8v2.51a.82.82,0,0,1-.81.82h-.73a.82.82,0,0,1-.81-.82V68.79l-1.79,1.79a.79.79,0,0,1-.56.23.82.82,0,0,1-.58-.23l-.52-.52a.81.81,0,0,1-.24-.58.79.79,0,0,1,.25-.57l1.77-1.78H73.16a.81.81,0,0,1-.81-.81v-.73a.81.81,0,0,1,.81-.81h2.52L73.9,63a.81.81,0,0,1,0-1.15l.52-.51A.78.78,0,0,1,75,61.1h0a.83.83,0,0,1,.58.24l1.78,1.78V60.6a.81.81,0,0,1,.81-.81h.73a.81.81,0,0,1,.81.81v2.51l1.78-1.77a.78.78,0,0,1,.57-.23.83.83,0,0,1,.58.23l.51.51a.81.81,0,0,1,0,1.15l-1.78,1.78h2.52m15.57,0H96.93L98.71,63a.81.81,0,0,0,0-1.15l-.51-.51a.82.82,0,0,0-.58-.23.79.79,0,0,0-.57.23l-1.78,1.77V60.6a.81.81,0,0,0-.81-.81h-.73a.81.81,0,0,0-.81.81v2.52l-1.78-1.78a.83.83,0,0,0-.58-.24h0a.78.78,0,0,0-.57.24l-.52.51a.83.83,0,0,0,0,1.15l1.78,1.78H88.74a.82.82,0,0,0-.82.81v.73a.82.82,0,0,0,.82.81h2.52l-1.78,1.78a.78.78,0,0,0-.24.57.8.8,0,0,0,.23.58l.52.52a.83.83,0,0,0,1.15,0l1.78-1.79v2.52a.82.82,0,0,0,.81.82h.73a.82.82,0,0,0,.81-.82V68.8l1.78,1.77a.77.77,0,0,0,.57.23.81.81,0,0,0,.58-.22l.51-.52a.81.81,0,0,0,0-1.15l-1.78-1.78h2.52a.81.81,0,0,0,.81-.81v-.73a.81.81,0,0,0-.81-.81M91.67,76.14H89.15l1.78-1.78a.81.81,0,0,0,.23-.57.83.83,0,0,0-.23-.58l-.52-.51a.79.79,0,0,0-.58-.22.8.8,0,0,0-.57.22l-1.78,1.78V72a.81.81,0,0,0-.81-.81h-.73a.81.81,0,0,0-.81.81v2.52L83.35,72.7a.78.78,0,0,0-.57-.23h0a.82.82,0,0,0-.58.23l-.51.51a.8.8,0,0,0-.24.58.76.76,0,0,0,.24.57l1.78,1.78H81a.81.81,0,0,0-.81.81v.73a.81.81,0,0,0,.81.81h2.52l-1.78,1.78a.83.83,0,0,0-.24.58.76.76,0,0,0,.24.57l.52.52a.8.8,0,0,0,.58.23.79.79,0,0,0,.56-.23l1.78-1.79v2.52a.82.82,0,0,0,.81.82h.73a.82.82,0,0,0,.81-.82V80.16l1.78,1.77a.8.8,0,0,0,.58.24.81.81,0,0,0,.57-.23l.52-.52a.79.79,0,0,0,.23-.57.82.82,0,0,0-.23-.58l-1.79-1.78h2.53a.81.81,0,0,0,.81-.81V77a.81.81,0,0,0-.81-.81" fill="#5290cc"/>
    <path d="M34.91,62.24a2.49,2.49,0,0,1,1.39,3.25l-5.67,14.2a2.49,2.49,0,0,1-2.32,1.57,2.46,2.46,0,0,1-.92-.17A2.55,2.55,0,0,1,26,77.84l5.67-14.21a2.56,2.56,0,0,1,.39-.66A2.51,2.51,0,0,1,34,62.06a2.56,2.56,0,0,1,.93.18m8.21,0a2.56,2.56,0,0,0-.93-.18,2.51,2.51,0,0,0-1.93.91,2.56,2.56,0,0,0-.39.66L34.2,77.84a2.47,2.47,0,0,0,.45,2.56,2.35,2.35,0,0,0,1.87.86,2.49,2.49,0,0,0,2.32-1.57l5.67-14.2a2.5,2.5,0,0,0-1.39-3.25m8.23,0A2.48,2.48,0,0,0,48.5,63a2.3,2.3,0,0,0-.39.66L42.44,77.84a2.49,2.49,0,0,0,.44,2.56,2.65,2.65,0,0,0,.95.69,2.55,2.55,0,0,0,.93.17,2.49,2.49,0,0,0,2.32-1.57l5.67-14.2a2.5,2.5,0,0,0-1.4-3.25m-24.67,0a2.56,2.56,0,0,0-.93-.18,2.49,2.49,0,0,0-1.93.91,2.56,2.56,0,0,0-.39.66L17.76,77.84a2.49,2.49,0,0,0,.44,2.56,2.65,2.65,0,0,0,.95.69,2.55,2.55,0,0,0,.93.17,2.49,2.49,0,0,0,2.32-1.57l5.67-14.2a2.5,2.5,0,0,0-1.39-3.25m32.89,0a2.56,2.56,0,0,0-.93-.18,2.51,2.51,0,0,0-1.93.91,2.56,2.56,0,0,0-.39.66L50.65,77.84a2.5,2.5,0,0,0,4.64,1.85L61,65.49a2.49,2.49,0,0,0-1.39-3.25m8.24,0a2.56,2.56,0,0,0-.93-.18A2.51,2.51,0,0,0,65,63a2.56,2.56,0,0,0-.39.66L58.89,77.84a2.49,2.49,0,0,0,.44,2.56,2.65,2.65,0,0,0,1,.69,2.55,2.55,0,0,0,.93.17,2.49,2.49,0,0,0,2.32-1.57l5.67-14.2a2.5,2.5,0,0,0-1.39-3.25" fill="#5290cc"/>
  </g>
</svg>
