<svg id="icon-W2" xmlns="http://www.w3.org/2000/svg" viewBox="0 0 64 64">
  <title>W2</title>
  <polygon points="7.99 42.5 17.74 32 7.99 21.5 16.26 21.5 26 32 16.26 42.5 7.99 42.5" fill="#c5c3c4" fill-rule="evenodd"/>
  <polygon points="22.99 42.5 32.74 32 22.99 21.5 31.26 21.5 41 32 31.26 42.5 22.99 42.5" fill="#047eb7" fill-rule="evenodd"/>
  <polygon points="37.99 42.5 47.74 32 37.99 21.5 46.26 21.5 56 32 46.26 42.5 37.99 42.5" fill="#047eb7" fill-rule="evenodd"/>
</svg>
