<svg id="icon-NW3" xmlns="http://www.w3.org/2000/svg" viewBox="0 0 64 64">
  <title>NW3</title>
  <polygon points="18.7 13.39 21.89 27.35 8.21 31.57 15.36 35.71 29.05 31.49 25.86 17.52 18.7 13.39" fill="#047eb7" fill-rule="evenodd"/>
  <polygon points="31.69 20.89 34.88 34.85 21.2 39.07 28.35 43.21 42.04 38.99 38.85 25.02 31.69 20.89" fill="#047eb7" fill-rule="evenodd"/>
  <polygon points="44.68 28.39 47.87 42.35 34.19 46.57 41.34 50.71 55.03 46.49 51.84 32.52 44.68 28.39" fill="#047eb7" fill-rule="evenodd"/>
</svg>
