<svg id="icon-SE2" xmlns="http://www.w3.org/2000/svg" viewBox="0 0 64 64">
  <title>SE2</title>
  <polygon points="44.54 50.71 41.35 36.74 55.03 32.52 47.88 28.39 34.19 32.61 37.38 46.57 44.54 50.71" fill="#c5c3c4" fill-rule="evenodd"/>
  <polygon points="31.55 43.21 28.36 29.25 42.04 25.02 34.88 20.89 21.2 25.11 24.39 39.07 31.55 43.21" fill="#047eb7" fill-rule="evenodd"/>
  <polygon points="18.55 35.71 15.37 21.75 29.05 17.52 21.89 13.39 8.21 17.61 11.4 31.57 18.55 35.71" fill="#047eb7" fill-rule="evenodd"/>
</svg>
